flashlight_1,1.0
soda_can_1,1.0
cap_1,1.0
food_cup_1,0.587936
water_bottle_1,0.452534
cap_2,1.0
notebook_1,0.540592
cereal_box_1,0.424443
water_bottle_2,0.949221
sponge_1,1.0
hand_towel_1,0.532881
soda_can_2,1.0
coffee_mug_1,0.485037
ball_1,1.0
hand_towel_2,0.770957
cereal_box_2,0.728385
kleenex_1,0.561253
bowl_1,1.0
ball_2,1.0
water_bottle_3,0.558513
binder_1,0.538888
hand_towel_3,0.300364
plate_1,0.982276
hand_towel_4,0.501409
food_can_1,0.714337
soda_can_3,0.943275
coffee_mug_2,0.864994
food_jar_1,0.990783
coffee_mug_3,1.0
plate_2,0.99949
soda_can_4,1.0
cereal_box_3,0.546653
hand_towel_5,0.587325
food_bag_1,0.672874
cereal_box_4,0.521783
water_bottle_4,0.414506
hand_towel_6,0.300364
hand_towel_7,0.251289
shampoo_1,0.840445
food_jar_2,0.610041
cap_3,1.0
food_cup_2,0.999961
shampoo_2,1.0
kleenex_2,0.598677
pitcher_1,0.758738
keyboard_1,0.5625
flashlight_2,1.0
sponge_2,1.0
food_jar_3,0.517903
cereal_box_5,0.400844
water_bottle_5,0.292081
food_can_2,0.865337
cap_4,1.0
sponge_3,0.706595
cereal_box_6,0.591956
food_box_1,0.654468
cereal_box_7,0.524651
soda_can_5,1.0
ball_3,1.0
notebook_2,0.271442
plate_3,0.979172
bowl_2,1.0
plate_4,1.0
coffee_mug_4,0.399257
sponge_4,1.0
food_bag_2,1.0
binder_2,0.525575
shampoo_3,1.0
food_cup_3,0.999916
sponge_5,0.130911
food_cup_4,0.467676
coffee_mug_5,0.546553
water_bottle_6,0.534567
kleenex_3,0.515594
keyboard_2,0.631515
notebook_3,0.62991
sponge_6,0.737636
ball_4,0.975461
keyboard_3,1.0
pitcher_2,0.520914
notebook_4,0.655568
cereal_box_8,0.7803
hand_towel_8,0.495174
keyboard_4,0.623243
soda_can_6,1.0
cereal_box_9,0.538685
food_cup_5,0.837279
flashlight_3,0.696697
flashlight_4,1.0
pitcher_3,0.728269
ball_5,1.0
plate_5,0.996407
binder_3,0.764519
pitcher_4,0.532582
plate_6,1.0
binder_4,0.541757
soda_can_7,1.0
water_bottle_7,0.439644
flashlight_5,1.0
kleenex_4,0.665783
water_bottle_8,0.748406
cereal_box_10,0.56385
pitcher_5,0.408271
soda_can_8,0.967975
binder_5,0.902044
notebook_5,0.148965
bowl_3,1.0
soda_can_9,1.0
notebook_6,0.296089
plate_7,1.0
shampoo_4,0.530807
keyboard_5,0.478049
cereal_box_11,0.539167
water_bottle_9,0.360014
cereal_box_12,0.240375
water_bottle_10,0.697846
water_bottle_11,0.708892
cereal_box_13,0.718217
ball_6,0.616059
soda_can_10,1.0
flashlight_6,1.0
food_box_2,0.700867
pitcher_6,0.603174
ball_7,1.0
food_cup_6,0.930964
plate_8,1.0
food_cup_7,0.64971
hand_towel_9,0.54241
notebook_7,0.22587
plate_9,0.905051
shampoo_5,1.0
keyboard_6,0.268212
soda_can_11,1.0
ball_8,1.0
food_cup_8,0.866563
plate_10,0.781115
food_bag_3,0.745961
food_bag_4,0.74475
food_can_3,0.969315
coffee_mug_6,1.0
coffee_mug_7,1.0
food_can_4,0.627392
water_bottle_12,0.813037
water_bottle_13,0.568196
cereal_box_14,0.746823
food_can_5,0.591873
pitcher_7,1.0
plate_11,0.300364
soda_can_12,1.0
soda_can_13,1.0
food_cup_9,0.687172
sponge_7,0.477864
cereal_box_15,0.621138
food_jar_4,0.673847
keyboard_7,0.473703
kleenex_5,0.933327
ball_9,1.0
food_box_3,0.713024
notebook_8,0.538482
water_bottle_14,0.478381
hand_towel_10,0.614984
binder_6,0.254901
keyboard_8,0.578643
shampoo_6,0.516935
flashlight_7,0.458738
food_box_4,0.947586
notebook_9,0.542034
coffee_mug_8,0.813036
keyboard_9,0.248169
bowl_4,0.755098
keyboard_10,0.469545
food_cup_10,0.993424
plate_12,0.549625
food_jar_5,0.518318
food_jar_6,0.631533
soda_can_14,0.586477
cap_5,1.0
food_box_5,0.548857
hand_towel_11,0.784724
sponge_8,0.109398
food_box_6,0.699082
food_bag_5,0.822037
water_bottle_15,0.366987
bowl_5,0.852964
flashlight_8,1.0
hand_towel_12,0.300364
pitcher_8,0.695812
flashlight_9,1.0
keyboard_11,0.863944
coffee_mug_9,0.554807
food_can_6,0.915222
plate_13,0.999479
hand_towel_13,0.300364
food_can_7,0.267639
water_bottle_16,0.701948
binder_7,0.557264
food_bag_6,0.646335
food_jar_7,0.323284
food_box_7,0.815962
coffee_mug_10,0.831906
notebook_10,0.541593
ball_10,1.0
shampoo_7,1.0
keyboard_12,0.741765
water_bottle_17,0.520264
bowl_6,1.0
pitcher_9,0.458069
kleenex_6,0.504507
kleenex_7,0.656436
keyboard_13,0.441068
water_bottle_18,0.869945
keyboard_14,0.268961
food_jar_8,0.77774
food_cup_11,0.257971
cap_6,0.685625
notebook_11,0.214746
ball_11,1.0
food_bag_7,0.969765
ball_12,1.0
binder_8,0.404804
coffee_mug_11,0.958263
flashlight_10,1.0
pitcher_10,1.0
flashlight_11,1.0
food_can_8,0.264875
sponge_9,0.761375
bowl_7,0.437526
notebook_12,0.485702
keyboard_15,0.766647
binder_9,0.688092
food_cup_12,0.602528
pitcher_11,0.670066
hand_towel_14,1.0
cap_7,1.0
plate_14,0.300364
food_jar_9,1.0
flashlight_12,1.0
plate_15,0.997857
food_box_8,0.428309
notebook_13,0.268971
sponge_10,1.0
food_box_9,0.475591
pitcher_12,1.0
bowl_8,0.736666
pitcher_13,0.275903
food_box_10,0.423354
food_box_11,0.703173
shampoo_8,1.0
soda_can_15,1.0
water_bottle_19,0.6236
hand_towel_15,0.300364
food_jar_10,0.548058
food_box_12,0.77596
flashlight_13,1.0
coffee_mug_12,0.613027
cereal_box_16,0.84882
cereal_box_17,0.471864
food_jar_11,1.0
cap_8,1.0
food_jar_12,1.0
food_cup_13,0.323422
food_box_13,0.584782
sponge_11,0.527619
water_bottle_20,0.794993
binder_10,0.318202
sponge_12,0.546707
sponge_13,1.0
kleenex_8,0.796059
bowl_9,0.835755
flashlight_14,1.0
water_bottle_21,0.57891
keyboard_16,0.294858
shampoo_9,1.0
food_box_14,0.750929
shampoo_10,1.0
ball_13,1.0
ball_14,1.0
food_bag_8,0.999682
flashlight_15,1.0
plate_16,0.300364
food_bag_9,0.350482
binder_11,0.268626
water_bottle_22,0.601936
kleenex_9,0.446643
food_can_9,0.735372
food_bag_10,1.0
keyboard_17,0.572872
binder_12,0.508973
bowl_10,1.0
bowl_11,1.0
coffee_mug_13,0.999372
food_cup_14,0.733034
sponge_14,0.374554
kleenex_10,0.627239
soda_can_16,1.0
kleenex_11,0.366702
plate_17,1.0
soda_can_17,0.928278
pitcher_14,0.999567
pitcher_15,0.567735
flashlight_16,1.0
cap_9,1.0
ball_15,0.842075
ball_16,1.0
food_can_10,0.821266
food_can_11,1.0
plate_18,0.998335
pitcher_16,1.0
keyboard_18,0.632864
ball_17,1.0
food_bag_11,0.479772
notebook_14,0.542135
soda_can_18,1.0
food_bag_12,0.517802
food_cup_15,0.458728
flashlight_17,1.0
food_cup_16,0.61968
pitcher_17,0.619897
sponge_15,0.529544
ball_18,1.0
sponge_16,1.0
food_can_12,0.988185
food_bag_13,0.928328
food_box_15,0.44316
kleenex_12,0.451114
food_bag_14,0.853259
pitcher_18,0.420175
plate_19,0.300364
shampoo_11,0.246316
hand_towel_16,0.300364
food_jar_13,0.570508
cap_10,1.0
pitcher_19,0.939723
food_bag_15,0.999925
food_jar_14,0.672594
ball_19,1.0
ball_20,1.0
food_can_13,0.671405
food_jar_15,0.981574
food_cup_17,0.470806
kleenex_13,0.801327
pitcher_20,0.361552
food_box_16,0.558576
bowl_12,1.0
sponge_17,0.335714
flashlight_18,1.0
shampoo_12,1.0
bowl_13,1.0
water_bottle_23,0.570647
flashlight_19,1.0
binder_13,0.498673
keyboard_19,0.547723
pitcher_21,0.753754
water_bottle_24,0.520849
binder_14,0.648377
binder_15,0.543913
soda_can_19,1.0
sponge_18,0.545637
food_cup_18,0.775022
sponge_19,0.480599
bowl_14,0.447588
food_cup_19,0.999706
sponge_20,1.0
food_box_17,0.405248
notebook_15,0.879752
cereal_box_18,0.536155
food_bag_16,1.0
kleenex_14,0.792071
coffee_mug_14,0.766952
food_bag_17,0.999434
bowl_15,1.0
food_bag_18,1.0
cap_11,1.0
pitcher_22,0.550915
soda_can_20,1.0
pitcher_23,0.680739
food_jar_16,0.271772
coffee_mug_15,0.84967
food_bag_19,0.768447
cereal_box_19,0.389274
coffee_mug_16,0.544908
plate_20,0.368933
coffee_mug_17,0.796928
food_cup_20,0.75739
sponge_21,0.46709
binder_16,0.565138
cap_12,1.0
hand_towel_17,0.756385
bowl_16,0.98222
plate_21,0.300364
food_can_14,0.816625
kleenex_15,0.768602
food_can_15,0.559973
hand_towel_18,0.300364
flashlight_20,0.638431
food_box_18,0.677261
food_cup_21,0.910103
binder_17,0.42715
kleenex_16,0.542228
plate_22,1.0
coffee_mug_18,0.53424
cap_13,1.0
sponge_22,1.0
food_can_16,0.420871
pitcher_24,0.644087
food_box_19,0.874181
coffee_mug_19,1.0
cereal_box_20,0.509052
plate_23,0.996123
cap_14,1.0
ball_21,0.991296
cap_15,1.0
pitcher_25,0.368799
notebook_16,0.390447
soda_can_21,1.0
water_bottle_25,0.152631
water_bottle_26,0.193427
notebook_17,0.168525
sponge_23,0.193618
shampoo_13,1.0
ball_22,0.783474
food_box_20,0.38488
binder_18,0.296949
food_can_17,0.869594
kleenex_17,0.549605
kleenex_18,0.897287
binder_19,0.69861
kleenex_19,0.85345
cap_16,1.0
keyboard_20,1.0
cap_17,0.689725
soda_can_22,1.0
flashlight_21,0.601314
notebook_18,0.670779
food_bag_20,0.971497
food_jar_17,0.740044
cap_18,1.0
pitcher_26,0.553854
cap_19,1.0
water_bottle_27,0.644651
shampoo_14,0.263986
water_bottle_28,0.620333
hand_towel_19,0.638101
coffee_mug_20,0.597801
bowl_17,0.813255
food_jar_18,0.800343
coffee_mug_21,0.750993
food_bag_21,0.9574
shampoo_15,1.0
binder_20,0.305169
plate_24,0.99524
sponge_24,0.732058
coffee_mug_22,0.654129
food_cup_22,0.892251
food_jar_19,0.67367
kleenex_20,0.719868
hand_towel_20,0.300364
notebook_19,0.541279
coffee_mug_23,0.951904
soda_can_23,1.0
hand_towel_21,0.300364
soda_can_24,1.0
sponge_25,1.0
plate_25,0.998962
shampoo_16,1.0
hand_towel_22,0.527411
sponge_26,1.0
notebook_20,0.450485
food_box_21,0.402269
water_bottle_29,0.706193
binder_21,0.730342
water_bottle_30,0.636311
food_jar_20,1.0
food_cup_23,0.957494
notebook_21,0.535558
food_bag_22,0.940418
flashlight_22,1.0
coffee_mug_24,0.875067
binder_22,0.517014
flashlight_23,1.0
hand_towel_23,0.202068
cereal_box_21,0.594896
food_can_18,1.0
bowl_18,0.696993
flashlight_24,1.0
coffee_mug_25,0.456868
food_cup_24,0.959886
cap_20,1.0
shampoo_17,1.0
shampoo_18,0.280107
soda_can_25,1.0
kleenex_21,0.355142
coffee_mug_26,1.0
binder_23,0.619629
bowl_19,0.792419
ball_23,1.0
food_can_19,0.748313
keyboard_21,0.469231
ball_24,1.0
bowl_20,1.0
flashlight_25,1.0
ball_25,1.0
food_can_20,0.766951
food_cup_25,1.0
keyboard_22,0.811118
food_jar_21,1.0
shampoo_19,0.209469
pitcher_27,0.797232
water_bottle_31,0.778003
binder_24,0.600998
food_can_21,1.0
ball_26,1.0
food_box_22,0.800812
food_jar_22,1.0
food_bag_23,0.885671
hand_towel_24,0.300364
food_box_23,0.763101
pitcher_28,0.508528
sponge_27,0.602246
food_can_22,0.78818
bowl_21,0.739543
flashlight_26,1.0
cap_21,1.0
coffee_mug_27,0.608106
food_box_24,0.432344
food_cup_26,0.711834
plate_26,0.300364
cap_22,1.0
food_bag_24,1.0
food_jar_23,0.67383
water_bottle_32,0.699581
binder_25,0.564551
cap_23,1.0
food_can_23,0.269936
food_bag_25,0.605613
food_can_24,0.723857
pitcher_29,0.975679
cereal_box_22,0.623543
food_jar_24,1.0
cereal_box_23,0.417877
plate_27,0.998929
cap_24,1.0
food_cup_27,1.0
food_can_25,0.959836
bowl_22,1.0
plate_28,1.0
notebook_22,0.244378
plate_29,1.0
water_bottle_33,0.621365
sponge_28,0.814934
shampoo_20,1.0
keyboard_23,0.553397
keyboard_24,0.25961
flashlight_27,1.0
coffee_mug_28,0.524931
shampoo_21,1.0
soda_can_26,1.0
keyboard_25,0.469324
food_box_25,0.708715
food_box_26,0.696516
notebook_23,0.233167
food_can_26,0.343987
keyboard_26,0.628706
kleenex_22,0.979907
hand_towel_25,0.300364
cap_25,1.0
ball_27,1.0
food_jar_25,1.0
cap_26,1.0
food_bag_26,1.0
kleenex_23,0.989939
kleenex_24,0.70912
food_bag_27,0.740584
shampoo_22,0.311285
notebook_24,0.197531
binder_26,0.219442
food_box_27,0.682843
food_cup_28,0.348129
food_jar_26,0.46923
pitcher_30,0.328136
ball_28,0.948043
bowl_23,0.81525
cap_27,1.0
cereal_box_24,0.818506
sponge_29,0.200813
food_jar_27,0.951628
food_cup_29,0.999834
food_jar_28,1.0
sponge_30,1.0
shampoo_23,1.0
soda_can_27,1.0
ball_29,1.0
food_box_28,0.588662
kleenex_25,0.81516
keyboard_27,0.254134
binder_27,0.666213
sponge_31,0.976627
cap_28,1.0
notebook_25,0.541497
hand_towel_26,0.300364
food_box_29,0.954706
bowl_24,1.0
plate_30,0.300364
food_bag_28,0.94907
shampoo_24,1.0
bowl_25,1.0
cap_29,1.0
shampoo_25,1.0
cereal_box_25,0.389642
water_bottle_34,0.627519
hand_towel_27,0.300364
notebook_26,0.246686
bowl_26,1.0
food_box_30,0.41811
flashlight_28,1.0
notebook_27,0.199803
keyboard_28,0.751726
food_box_31,0.549242
food_box_32,0.507576
food_can_27,0.891828
kleenex_26,0.946353
flashlight_29,1.0
plate_31,0.989715
plate_32,0.300364
plate_33,1.0
flashlight_30,0.482667
food_cup_30,0.52901
ball_30,1.0
plate_34,0.765435
food_box_33,0.568256
cereal_box_26,0.651902
water_bottle_35,0.664523
sponge_32,1.0
food_bag_29,0.693745
notebook_28,0.710082
soda_can_28,1.0
food_box_34,0.429776
food_bag_30,0.655635
kleenex_27,0.7938
hand_towel_28,0.300364
food_bag_31,0.432005
cap_30,0.691125
coffee_mug_29,0.730361
food_box_35,0.635311
coffee_mug_30,0.559985
sponge_33,1.0
bowl_27,1.0
cereal_box_27,0.605613
food_jar_29,1.0
hand_towel_29,0.649061
cap_31,1.0
shampoo_26,0.338794
sponge_34,0.134628
notebook_29,0.882217
bowl_28,1.0
ball_31,0.997642
bowl_29,0.615592
water_bottle_36,0.889725
shampoo_27,0.302437
kleenex_28,0.63607
bowl_30,1.0
kleenex_29,0.808054
binder_28,0.710579
cereal_box_28,0.961693
shampoo_28,1.0
notebook_30,0.486849
shampoo_29,1.0
keyboard_29,0.495972
binder_29,0.525763
ball_32,1.0
plate_35,1.0
coffee_mug_31,0.986832
cereal_box_29,0.383512
food_jar_30,0.430034
cereal_box_30,0.617774
ball_33,1.0
ball_34,1.0
food_can_28,0.771404
kleenex_30,0.735658
shampoo_30,1.0
soda_can_29,1.0
ball_35,1.0
food_bag_32,0.599301
sponge_35,0.680005
keyboard_30,0.658948
soda_can_30,0.470355
coffee_mug_32,0.516481
food_box_36,0.648111
binder_30,0.506909
sponge_36,0.562345
cap_32,1.0
hand_towel_30,0.479578
